<?xml version="1.0" encoding="utf-8"?>
<!-- Generator: Adobe Illustrator 22.1.0, SVG Export Plug-In . SVG Version: 6.00 Build 0)  -->
<svg version="1.1" id="Layer_1" xmlns="http://www.w3.org/2000/svg" xmlns:xlink="http://www.w3.org/1999/xlink" x="0px" y="0px"
	 width="19.6px" height="202.8px" viewBox="0 0 19.6 202.8" style="enable-background:new 0 0 19.6 202.8;" xml:space="preserve">
<style type="text/css">
	.st0{fill:#231F20;}
</style>
<g>
	<g>
		<path class="st0" d="M2.8,3.7V3c0-0.5,0-0.9-0.6-0.9c-0.5,0-0.5,0.4-0.5,0.8v0.7H2.8z M1.3,4.2V2.8c0-0.8,0.3-1.2,1-1.2
			c0.6,0,0.9,0.4,0.9,0.9l1.5-1v0.6L3.3,3v0.6h1.5v0.5H1.3z M5.6,2.9c0-1.4-1.1-2.4-2.5-2.4S0.5,1.6,0.5,2.9c0,1.4,1.1,2.4,2.5,2.4
			C4.6,5.5,5.6,4.4,5.6,2.9 M0.1,2.9C0.1,1.3,1.4,0,3,0c1.7,0,3,1.3,3,2.9S4.8,6,3,6C1.4,6,0.1,4.7,0.1,2.9"/>
		<g>
			<path class="st0" d="M0.4,107.5v4.2h18.9v-4.2H0.4z"/>
			<path class="st0" d="M16.6,154.9v9.5H0.4v4.2h18.9v-13.7H16.6z"/>
			<path class="st0" d="M10.5,81.4C9.8,77.8,8.3,75,5.3,75c-3.4,0-4.8,3.5-4.8,8.7c0,1.5,0,7.7,0,7.7h18.9v-4.2c0,0-5.4,0-8.2,0
				v-1.8c1.8-2,8.2-7.4,8.2-7.4v-4.9C19.3,73.2,12.7,79.6,10.5,81.4z M9.1,87.3H2.3c0,0,0-2.6,0-3.5c0-0.9,0.5-4.2,3.3-4.2
				s3.4,3.5,3.4,4.7C9.1,85,9.1,87.3,9.1,87.3z"/>
			<path class="st0" d="M0.4,132.7v3.3l18.9,10.3v-2.9l-5.8-3v-9.2l5.8-2.6v-5L0.4,132.7z M11.4,139.3l-7.5-3.8l7.5-3.4V139.3z"/>
			<path class="st0" d="M16.6,10.2v9.5H0.4v4.2h18.9V10.2H16.6z"/>
			<path class="st0" d="M19.6,50.9c0-7.4-3.5-13.4-9.7-13.4c-5.4,0-9.7,5.1-9.7,13.4c0,8.2,4.4,13.4,9.7,13.4
				C16,64.2,19.6,58.2,19.6,50.9 M9.8,42.2c4.4,0,7.8,3,7.8,8.6s-3.4,8.6-7.8,8.6S2,56.4,2,50.8C2,45.2,5.5,42.2,9.8,42.2z"/>
			<path class="st0" d="M15,182c1.6,1.7,2.4,4.4,2.4,7.5c0,5.6-3.3,8.6-7.6,8.6s-7.7-3-7.7-8.6c0-2.8,0.8-5.3,2.1-7v-0.2l-2.6-1
				c-1.1,2.2-1.6,5.1-1.6,8.1c0,8.2,4.4,13.4,9.7,13.4c6.2,0,9.7-6,9.7-13.4c0-2.8-0.5-5.4-1.4-7.5l-3.1-0.4v0.5H15z"/>
		</g>
	</g>
</g>
</svg>
