<?xml version="1.0" encoding="utf-8"?>
<!-- Generator: Adobe Illustrator 22.1.0, SVG Export Plug-In . SVG Version: 6.00 Build 0)  -->
<svg version="1.1" id="Layer_1" xmlns="http://www.w3.org/2000/svg" xmlns:xlink="http://www.w3.org/1999/xlink" x="0px" y="0px"
	 width="22.2px" height="23px" viewBox="0 0 22.2 23" style="enable-background:new 0 0 22.2 23;" xml:space="preserve">
<style type="text/css">
	.st0{fill:#CCCACA;}
</style>
<path class="st0" d="M21.2,20.4l-4.6-4.8c1.2-1.4,1.9-3.2,1.9-5c0-4.2-3.5-7.7-7.8-7.7s-7.8,3.5-7.8,7.8s3.5,7.8,7.8,7.8
	c1.6,0,3.2-0.5,4.5-1.4l4.6,4.8c0.2,0.2,0.4,0.3,0.8,0.3c0.3,0,0.5-0.1,0.7-0.3C21.5,21.5,21.5,20.8,21.2,20.4z M10.6,4.8
	c3.2,0,5.8,2.6,5.8,5.8s-2.6,5.8-5.8,5.8s-5.8-2.6-5.8-5.8S7.4,4.8,10.6,4.8z"/>
</svg>
