<?xml version="1.0" encoding="utf-8"?>
<!-- Generator: Adobe Illustrator 22.1.0, SVG Export Plug-In . SVG Version: 6.00 Build 0)  -->
<svg version="1.1" id="Layer_2" xmlns="http://www.w3.org/2000/svg" xmlns:xlink="http://www.w3.org/1999/xlink" x="0px" y="0px"
	 width="212.4px" height="63.3px" viewBox="0 0 212.4 63.3" style="enable-background:new 0 0 212.4 63.3;" xml:space="preserve">
<style type="text/css">
	.st0{fill:#FFFFFF;}
</style>
<g>
	<path class="st0" d="M16.6,11.8v9.6c-1.5,1.9-3.9,2.9-7.1,2.9c-3,0-5.3-1-7-2.9c-1.7-1.9-2.5-4.6-2.5-8c0-4,1.1-7.1,3.3-9.1
		C4.9,2.7,7.1,2,9.7,2c1.3,0,2.4,0.2,3.4,0.5c1,0.4,2.1,0.9,3.2,1.8l-2,3.1c-1.5-1.1-3-1.6-4.6-1.6c-2.1,0-3.6,0.9-4.6,2.6
		c-0.7,1.3-1.1,2.9-1.1,4.9c0,1.6,0.2,3,0.7,4.2c0.9,2.1,2.6,3.2,5,3.2c0.9,0,1.9-0.2,2.9-0.6v-6.3L16.6,11.8z"/>
	<path class="st0" d="M32.9,16.7H22.4c0.2,1.4,0.7,2.5,1.4,3.1c0.7,0.6,1.8,0.9,3,0.9c1.4,0,2.7-0.5,3.9-1.5l2,2.7
		c-1.7,1.5-3.7,2.3-6.2,2.3c-2.6,0-4.6-0.8-6-2.5c-1.4-1.6-2.1-3.7-2.1-6.4c0-2.2,0.5-4.1,1.4-5.8c1.3-2.3,3.4-3.5,6.2-3.5
		c2.6,0,4.6,1,5.8,3.1c0.8,1.4,1.2,3.2,1.2,5.5C33,15.2,33,15.9,32.9,16.7z M22.4,13.5h6.8c0-1.4-0.3-2.5-1-3.1
		c-0.6-0.6-1.3-0.8-2.3-0.8C24,9.6,22.8,10.9,22.4,13.5z"/>
	<path class="st0" d="M44.3,24.1h-2c-4.7,0-7.1-2.4-7.1-7.3v-14h3.9v3.6h5.7l-1.5,3.4h-4.2v6.8c0,1.5,0.4,2.5,1,3.1
		c0.6,0.5,1.4,0.8,2.6,0.8h1.6V24.1z"/>
	<path class="st0" d="M62.2,24.1h-2c-4.7,0-7.1-2.4-7.1-7.3v-14H57v3.6h5.7l-1.5,3.4H57v6.8c0,1.5,0.4,2.5,1,3.1
		c0.6,0.5,1.4,0.8,2.6,0.8h1.6V24.1z"/>
	<path class="st0" d="M67.9,7.8c1.1-1.1,2.5-1.6,4.3-1.6c2.2,0,3.9,0.7,5,2.1c1,1.3,1.5,3.2,1.5,5.6v10.1h-3.8v-9.8
		c0-1.6-0.3-2.8-0.8-3.5c-0.5-0.7-1.3-1-2.5-1c-1.3,0-2.2,0.4-2.8,1.1c-0.6,0.7-0.9,2-0.9,3.6v9.5h-3.9V0h3.8V7.8z"/>
	<path class="st0" d="M95.1,16.7H84.6c0.2,1.4,0.7,2.5,1.4,3.1c0.7,0.6,1.8,0.9,3,0.9c1.4,0,2.7-0.5,3.9-1.5l2,2.7
		c-1.7,1.5-3.7,2.3-6.2,2.3c-2.6,0-4.6-0.8-6-2.5c-1.4-1.6-2.1-3.7-2.1-6.4c0-2.2,0.5-4.1,1.4-5.8c1.3-2.3,3.4-3.5,6.2-3.5
		c2.6,0,4.6,1,5.8,3.1c0.8,1.4,1.2,3.2,1.2,5.5C95.2,15.2,95.2,15.9,95.1,16.7z M84.6,13.5h6.8c0-1.4-0.3-2.5-1-3.1
		c-0.6-0.6-1.3-0.8-2.3-0.8C86.2,9.6,85,10.9,84.6,13.5z"/>
	<path class="st0" d="M115.2,2.3h4.3l-6.3,13.5v8.2h-4v-8.2l-6.3-13.5h4.3l4,9.2L115.2,2.3z"/>
	<path class="st0" d="M126,6.1c3.1,0,5.2,1.1,6.6,3.4c0.9,1.5,1.3,3.3,1.3,5.6c0,3.1-0.8,5.4-2.3,7c-1.4,1.4-3.2,2.1-5.6,2.1
		c-2.7,0-4.7-0.9-6.1-2.7c-1.2-1.6-1.8-3.7-1.8-6.5c0-2.2,0.4-4.1,1.3-5.5C120.8,7.3,123,6.1,126,6.1z M126,9.7c-2.7,0-4,1.9-4,5.7
		c0,3.6,1.3,5.4,4,5.4c2.7,0,4-1.8,4-5.3C130,11.6,128.7,9.7,126,9.7z"/>
	<path class="st0" d="M135.8,6.4h3.9v10.2c0,2.7,1.1,4,3.3,4s3.3-1.3,3.3-4V6.4h3.9v10.2c0,5.1-2.4,7.6-7.1,7.6
		c-4.7,0-7.1-2.5-7.1-7.6V6.4z"/>
	<path class="st0" d="M158.7,5.8v18.2h-4V5.8h-5.6V2.3h15.6l-1,3.5H158.7z"/>
	<path class="st0" d="M163.7,6.4h3.9v10.2c0,2.7,1.1,4,3.3,4s3.3-1.3,3.3-4V6.4h3.9v10.2c0,5.1-2.4,7.6-7.1,7.6
		c-4.7,0-7.1-2.5-7.1-7.6V6.4z"/>
	<path class="st0" d="M184.5,8c0.7-0.7,1.4-1.1,2.1-1.4c0.8-0.3,1.7-0.5,2.8-0.5c2.4,0,4.2,0.9,5.5,2.7c1.1,1.5,1.6,3.6,1.6,6.3
		c0,2.3-0.4,4.3-1.3,5.8c-1.3,2.2-3.3,3.4-6.2,3.4c-1,0-1.8-0.1-2.5-0.4c-0.7-0.3-1.5-0.8-2.3-1.5v1.6h-3.4V0h3.8V8z M188.5,9.7
		c-2.7,0-4.1,1.9-4.1,5.6c0,1.9,0.3,3.2,1,4.1c0.7,0.9,1.7,1.3,3,1.3c1.4,0,2.4-0.4,3.1-1.3c0.6-0.9,1-2.2,1-4.1
		c0-1.9-0.3-3.3-1-4.3C190.9,10.1,189.9,9.7,188.5,9.7z"/>
	<path class="st0" d="M212.3,16.7h-10.5c0.2,1.4,0.7,2.5,1.4,3.1c0.7,0.6,1.8,0.9,3,0.9c1.4,0,2.7-0.5,3.9-1.5l2,2.7
		c-1.7,1.5-3.7,2.3-6.2,2.3c-2.6,0-4.6-0.8-6-2.5c-1.4-1.6-2.1-3.7-2.1-6.4c0-2.2,0.5-4.1,1.4-5.8c1.3-2.3,3.4-3.5,6.2-3.5
		c2.6,0,4.6,1,5.8,3.1c0.8,1.4,1.2,3.2,1.2,5.5C212.4,15.2,212.4,15.9,212.3,16.7z M201.8,13.5h6.8c0-1.4-0.3-2.5-1-3.1
		c-0.6-0.6-1.3-0.8-2.3-0.8C203.4,9.6,202.2,10.9,201.8,13.5z"/>
	<path class="st0" d="M36.4,56.9V35.3h4l6.9,14.5l6.8-14.5h4v21.7h-3.9V43.6l-5.7,12.7h-2.4l-5.7-12.7v13.4H36.4z"/>
	<path class="st0" d="M60.8,39.4h3.9v10.2c0,2.7,1.1,4,3.3,4s3.3-1.3,3.3-4V39.4H75v10.2c0,5.1-2.4,7.6-7.1,7.6
		c-4.7,0-7.1-2.5-7.1-7.6V39.4z"/>
	<path class="st0" d="M77.8,52.2c1.4,1.1,3,1.6,4.6,1.6c1.9,0,2.9-0.6,2.9-1.8c0-0.4-0.2-0.8-0.5-1.1c-0.4-0.4-1.3-0.8-2.6-1.2
		c-2.1-0.7-3.6-1.6-4.2-2.5c-0.6-0.8-0.9-1.8-0.9-2.9c0-1.5,0.5-2.8,1.6-3.7c1.1-1,2.6-1.5,4.6-1.5c1,0,1.9,0.1,2.8,0.4
		c0.9,0.3,1.7,0.6,2.4,1.1L87,43.7c-1.1-0.7-2.4-1.1-3.7-1.1c-1.6,0-2.4,0.5-2.4,1.6c0,0.3,0.1,0.5,0.2,0.7c0.4,0.5,1.3,1,2.6,1.3
		c1.8,0.5,3.2,1.3,4.1,2.2c0.9,0.9,1.3,2.1,1.3,3.4c0,1.6-0.5,2.8-1.6,3.8c-1.2,1-2.8,1.6-5,1.6c-1.2,0-2.4-0.2-3.4-0.5
		s-2-0.8-2.7-1.5L77.8,52.2z"/>
	<path class="st0" d="M93,32.4c0.7,0,1.2,0.2,1.7,0.6c0.4,0.4,0.6,1,0.6,1.7c0,0.7-0.2,1.2-0.6,1.6c-0.4,0.4-1,0.7-1.7,0.7
		c-0.7,0-1.2-0.2-1.6-0.6c-0.4-0.4-0.7-1-0.7-1.7s0.2-1.2,0.6-1.7C91.8,32.6,92.3,32.4,93,32.4z M96.7,57.1h-0.9
		c-1.7,0-3-0.4-3.7-1.2c-0.7-0.8-1.1-2.1-1.1-4V39.4h3.9v12.1c0,0.7,0.1,1.1,0.3,1.4c0.2,0.3,0.5,0.4,1,0.4h0.5V57.1z"/>
	<path class="st0" d="M110.1,44.1c-1.3-0.9-2.7-1.4-4.1-1.4c-1.6,0-2.8,0.7-3.5,2c-0.5,1-0.8,2.1-0.8,3.5c0,1.8,0.4,3.1,1.2,4.1
		c0.8,1,1.9,1.4,3.3,1.4c1.4,0,2.8-0.5,4.2-1.5l1.8,2.8c-1.7,1.5-3.8,2.2-6.3,2.2c-2.6,0-4.5-0.8-5.9-2.4c-1.4-1.6-2.1-3.8-2.1-6.6
		c0-2.1,0.4-4,1.3-5.5c1.4-2.4,3.7-3.6,6.8-3.6c2.3,0,4.2,0.7,5.9,2.1L110.1,44.1z"/>
	<path class="st0" d="M121.2,40.6c1.7-1,3.8-1.5,6.1-1.5c2.5,0,4.3,0.7,5.5,2.1c1.2,1.4,1.8,3.5,1.8,6.4v9.3h-3.3v-1.5
		c-0.5,0.6-1.1,1.1-1.8,1.4c-0.7,0.3-1.7,0.4-2.9,0.4c-2.2,0-3.9-0.6-5-1.9c-0.9-1-1.4-2.3-1.4-3.9c0-1.8,0.6-3.1,1.7-4.2
		c1.1-1,2.7-1.5,4.6-1.5c1.7,0,3.1,0.3,4.2,0.9c0-1.6-0.4-2.7-1.1-3.3c-0.7-0.6-1.6-0.9-3-0.9c-1.4,0-2.9,0.3-4.4,0.9L121.2,40.6z
		 M127.5,49.1c-2.3,0-3.5,0.8-3.5,2.4c0,1.6,1.1,2.3,3.4,2.3c2.3,0,3.4-0.8,3.4-2.4C130.9,49.9,129.7,49.1,127.5,49.1z"/>
	<path class="st0" d="M140.7,41.2c0.7-0.7,1.5-1.3,2.2-1.6c0.9-0.3,1.9-0.5,3-0.5c2.4,0,4.2,0.9,5.5,2.7c1.1,1.5,1.6,3.6,1.6,6.3
		c0,2.3-0.4,4.3-1.3,5.8c-1.3,2.2-3.3,3.4-6.2,3.4c-0.9,0-1.7-0.1-2.3-0.4c-0.7-0.3-1.4-0.7-2.1-1.3v7.7h-3.8V39.4h3.4V41.2z
		 M145.2,42.7c-2.7,0-4.1,1.9-4.1,5.6c0,1.9,0.3,3.2,1,4.1s1.7,1.3,3,1.3c1.4,0,2.4-0.4,3.1-1.3c0.6-0.9,1-2.2,1-4.1
		c0-1.9-0.3-3.3-1-4.3C147.5,43.1,146.5,42.7,145.2,42.7z"/>
	<path class="st0" d="M158.6,41.2c0.7-0.7,1.5-1.3,2.2-1.6c0.9-0.3,1.9-0.5,3-0.5c2.4,0,4.2,0.9,5.5,2.7c1.1,1.5,1.6,3.6,1.6,6.3
		c0,2.3-0.4,4.3-1.3,5.8c-1.3,2.2-3.3,3.4-6.2,3.4c-0.9,0-1.7-0.1-2.3-0.4c-0.7-0.3-1.4-0.7-2.1-1.3v7.7h-3.8V39.4h3.4V41.2z
		 M163,42.7c-2.7,0-4.1,1.9-4.1,5.6c0,1.9,0.3,3.2,1,4.1s1.7,1.3,3,1.3c1.4,0,2.4-0.4,3.1-1.3c0.6-0.9,1-2.2,1-4.1
		c0-1.9-0.3-3.3-1-4.3C165.4,43.1,164.4,42.7,163,42.7z"/>
	<path class="st0" d="M174.4,52.6c0.7,0,1.2,0.2,1.7,0.7c0.5,0.5,0.7,1,0.7,1.7s-0.2,1.2-0.7,1.7s-1,0.7-1.7,0.7
		c-0.7,0-1.2-0.2-1.7-0.7c-0.5-0.5-0.7-1-0.7-1.7s0.2-1.2,0.7-1.7C173.1,52.9,173.7,52.6,174.4,52.6z"/>
</g>
</svg>
